<?xml version="1.0" encoding="iso-8859-1"?>
<!-- Generator: Adobe Illustrator 19.1.0, SVG Export Plug-In . SVG Version: 6.00 Build 0)  -->
<svg version="1.1" xmlns="http://www.w3.org/2000/svg" xmlns:xlink="http://www.w3.org/1999/xlink" x="0px" y="0px"
	 viewBox="0 0 70.866 70.866" style="enable-background:new 0 0 70.866 70.866;" xml:space="preserve">
<g id="twitter">
	<g>
		<path style="fill:#231F20;" d="M59.103,23.292c0.024,0.525,0.035,1.052,0.035,1.58c0,16.139-12.285,34.75-34.748,34.75
			c-6.899,0-13.318-2.022-18.721-5.489c0.955,0.114,1.927,0.172,2.913,0.172c5.722,0,10.987-1.952,15.168-5.229
			c-5.343-0.098-9.855-3.629-11.409-8.481c0.747,0.143,1.511,0.219,2.298,0.219c1.114,0,2.194-0.15,3.217-0.429
			c-5.586-1.121-9.796-6.058-9.796-11.975c0-0.052,0-0.102,0.001-0.153c1.647,0.915,3.531,1.463,5.531,1.527
			c-3.277-2.191-5.433-5.928-5.433-10.165c0-2.238,0.603-4.336,1.654-6.14c6.022,7.389,15.023,12.251,25.173,12.76
			c-0.209-0.894-0.316-1.826-0.316-2.783c0-6.745,5.468-12.212,12.213-12.212c3.512,0,6.687,1.482,8.915,3.856
			c2.782-0.548,5.395-1.565,7.756-2.964c-0.913,2.852-2.849,5.245-5.371,6.757c2.471-0.296,4.824-0.952,7.015-1.923
			C63.559,19.42,61.489,21.571,59.103,23.292z"/>
	</g>
</g>
<g id="Layer_1">
</g>
</svg>
