<?xml version="1.0" encoding="iso-8859-1"?>
<!-- Generator: Adobe Illustrator 19.1.0, SVG Export Plug-In . SVG Version: 6.00 Build 0)  -->
<svg version="1.1" id="Layer_2" xmlns="http://www.w3.org/2000/svg" xmlns:xlink="http://www.w3.org/1999/xlink" x="0px" y="0px"
	 viewBox="0 0 59.553 59.553" style="enable-background:new 0 0 59.553 59.553;" xml:space="preserve">
<line style="fill:none;stroke:#ffffff;stroke-width:12;stroke-linecap:round;stroke-miterlimit:10;" x1="6.148" y1="53.405" x2="29.776" y2="29.776"/>
<line style="fill:none;stroke:#ffffff;stroke-width:12;stroke-linecap:round;stroke-miterlimit:10;" x1="29.776" y1="29.776" x2="53.405" y2="6.148"/>
<line style="fill:none;stroke:#ffffff;stroke-width:12;stroke-linecap:round;stroke-miterlimit:10;" x1="6.148" y1="6.148" x2="29.776" y2="29.776"/>
<line style="fill:none;stroke:#ffffff;stroke-width:12;stroke-linecap:round;stroke-miterlimit:10;" x1="29.776" y1="29.776" x2="53.405" y2="53.405"/>
</svg>
